{
  "hosting": {
    "public": "public",
    "ignore": ["firebase.json", "**/.*", "**/node_modules/**"],
    "rewrites": [
      {
        "source": "/tos",
        "destination": "/tos.html"
      },
      {
        "source": "**",
        "destination": "/app.html"
      }
    ]
  },
  "emulators": {
    "hosting": {
      "host": "0.0.0.0",
      "port": 3000
    },
    "ui": {
      "enabled": true
    }
  }
}
